// Jest Snapshot v1, https://goo.gl/fbAQLP

exports[`<AddButton/> AddButton should render 1`] = `
<Button
  active={false}
  data-test="AddButton"
  disabled={false}
  onClick={[MockFunction]}
  type="submit"
  variant="primary"
>
  Add
</Button>
`;
