// Jest Snapshot v1, https://goo.gl/fbAQLP

exports[`<DeleteButton/> AddButton should render 1`] = `
<Button
  active={false}
  data-test="deleteButton"
  disabled={false}
  id="id"
  onClick={[MockFunction]}
  type="button"
  variant="danger"
>
  Delete
</Button>
`;
