// Jest Snapshot v1, https://goo.gl/fbAQLP

exports[`<Friend /> Friend component should render 1`] = `
<li>
  <Card
    body={false}
  >
    <CardBody>
      <CardTitle>
        <span
          className="name"
        >
          Name: 
           
        </span>
        <span
          className="age"
        >
           Age: 
        </span>
      </CardTitle>
      <div
        className="buttonHolder"
      >
        <DeleteButton />
        <Update />
      </div>
    </CardBody>
  </Card>
</li>
`;
