// Jest Snapshot v1, https://goo.gl/fbAQLP

exports[`<ModalUpdateButton /> ModalUpdateButton should render 1`] = `
<Button
  active={false}
  disabled={false}
  onClick={[MockFunction]}
  type="submit"
  variant="primary"
>
  Update
</Button>
`;
