// Jest Snapshot v1, https://goo.gl/fbAQLP

exports[`<ModalLastname/> Lastname field should render 1`] = `
<FormGroup
  as={
    Object {
      "$$typeof": Symbol(react.forward_ref),
      "defaultProps": Object {
        "noGutters": false,
      },
      "render": [Function],
    }
  }
  controlId="formPlaintextPassword"
>
  <FormLabel
    column={true}
    sm="2"
    srOnly={false}
  >
    Lastname
  </FormLabel>
  <Col
    sm="10"
  >
    <FormControl
      onChange={[MockFunction]}
      type="lastname"
    />
  </Col>
</FormGroup>
`;
