// Jest Snapshot v1, https://goo.gl/fbAQLP

exports[`<SortButton/> SortButton should render 1`] = `
<div
  className="sort"
>
  <Button
    active={false}
    disabled={false}
    onClick={[MockFunction]}
    type="button"
    variant="secondary"
  >
    Sort
  </Button>
</div>
`;
