// Jest Snapshot v1, https://goo.gl/fbAQLP

exports[`<NavigationBar/> Navbar should render 1`] = `
<Container
  fluid={false}
>
  <Navbar
    bg="primary"
    collapseOnSelect={false}
    expand="lg"
    variant="dark"
  >
    <NavbarBrand>
      <Link
        to="/"
      >
        Friendsbook
      </Link>
    </NavbarBrand>
    <NavbarToggle
      aria-controls="basic-navbar-nav"
      label="Toggle navigation"
    />
    <NavbarCollapse
      id="basic-navbar-nav"
    >
      <Nav
        className="ml-auto"
        fill={false}
        justify={false}
      >
        <NavItem>
          <Link
            to="/"
          >
            Home
          </Link>
        </NavItem>
        <NavItem>
          <Link
            to="/about"
          >
            About
          </Link>
        </NavItem>
        <NavItem>
          <Link
            to="/contact"
          >
            Contact
          </Link>
        </NavItem>
      </Nav>
    </NavbarCollapse>
  </Navbar>
</Container>
`;
